<?xml version="1.0" encoding="utf-8"?>
<!-- Generator: Adobe Illustrator 21.0.2, SVG Export Plug-In . SVG Version: 6.00 Build 0)  -->
<svg version="1.1" id="Layer_1" xmlns="http://www.w3.org/2000/svg" xmlns:xlink="http://www.w3.org/1999/xlink" x="0px" y="0px"
	 viewBox="0 0 60 60" style="enable-background:new 0 0 60 60;" xml:space="preserve">
<style type="text/css">
	.st0{clip-path:url(#SVGID_2_);fill:#E1F3F9;}
	.st1{clip-path:url(#SVGID_2_);}
	.st2{fill:#F4E3D6;}
	.st3{fill:#F3D1BB;}
	.st4{fill:#683C11;}
	.st5{fill:none;stroke:#683C11;stroke-width:0;stroke-linecap:round;stroke-linejoin:round;}
	.st6{fill:#1E88E5;}
</style>
<g>
	<g>
		<defs>
			<circle id="SVGID_1_" cx="30.4" cy="29.9" r="25.5"/>
		</defs>
		<clipPath id="SVGID_2_">
			<use xlink:href="#SVGID_1_"  style="overflow:visible;"/>
		</clipPath>
		<circle class="st0" cx="30.4" cy="29.9" r="25.5"/>
		<g class="st1">
			<g>
				<path class="st2" d="M35.1,39.9c-1.1-1.5-1.7-3-1.6-4.9c0-0.4-0.3-0.6-0.7-0.5c0,0-0.1-0.1-0.1-0.1c-1.6-1-3.6-0.8-5.3-0.1
					c-0.1,0-0.2,0.2-0.3,0.3c-0.2,0-0.4,0.2-0.3,0.5c0.5,2.2-0.3,3.7-1.3,5.5c-0.5,1-0.7,2.1-0.4,3.2c0.7,2.5,3.4,3.7,5.9,3.6
					c2.4-0.1,4.8-1.3,5.2-3.9C36.3,42,35.8,41,35.1,39.9z"/>
				<path class="st3" d="M39.5,24.6c0.1-1.2,0.2-2.4,0-3.5c-0.7-5.7-8.3-5.1-12.5-5c-2.5,0-4,1.2-4.7,3.6c-0.5,1.6-0.6,3.4-0.6,5.1
					c-0.4-0.1-0.8,0.1-1.1,0.4c-0.4,0.5-0.5,1.2-0.4,1.8c0.1,0.6,0.3,1.2,0.9,1.6c0.3,0.2,0.7,0.2,1,0.2c0,0.1,0,0.2,0,0.3
					c0,0.1,0,0.1,0.1,0.1c0.3,1.6,0.9,3.2,1.9,4.5c2.6,3.6,7.5,4.6,10.9,1.6c1.8-1.6,2.9-3.8,3.5-6.1c0-0.2,0.1-0.4,0.1-0.6
					c0.1,0,0.1,0,0.2,0C40.7,28.6,41.1,25,39.5,24.6z"/>
				<path class="st4" d="M43.1,18.9C43.1,18.9,43.1,18.9,43.1,18.9C43.1,19,43.1,19,43.1,18.9c-1.4,1.7-0.6,0-0.5-0.5
					c0.1-0.7,0-1.5-0.2-2.2c0-0.1-0.2-0.1-0.2,0c-0.2,2-2.3,2.1-3.7,1.3c-0.5-0.3-1.2-0.8-1.7-1.3c0.4-0.1,0.5-0.2,0.7-0.6
					c0.1-0.1,0-0.2-0.1-0.2c-1.6,0.3-2.7-0.6-4.2-1c-1-0.2-1.9-0.2-2.9-0.1c0.2-0.3,0.2-0.6,0.1-1c0-0.1-0.2-0.1-0.2,0
					c-0.5,0.9-2.1,0.5-2.9,0.5c-0.7,0-1.4,0.1-2,0.4c-0.6,0.2-1.6,0.7-1.8,1.3c-0.2-0.5-0.3-0.9-0.4-1.4c0-0.1-0.2-0.1-0.2,0
					c-0.5,0.7-0.7,1.6-0.5,2.4c-0.9,0.4-1.5,1.1-2,1.9c-0.1,0.1,0.1,0.2,0.2,0.2c0.1-0.1,1.1-0.6,1.2-0.2c0,0.1-0.4,0.7-0.4,0.8
					c-0.2,0.5-0.4,1-0.6,1.5c-0.3,1.1-0.4,2.2-0.5,3.3c0,0.1,0.2,0.2,0.2,0.1c0.1-0.2,0.2-0.4,0.4-0.5c-0.2,0.6-0.4,1.2-0.3,1.8
					c0,0,0,0,0,0c-0.1,0.1,0,0.2,0.1,0.1c0.3-0.2,0.8-0.6,1.2,0c0.1,0.2,0.1,0.4,0.1,0.6c0.1,0.5,0.1,1,0.1,1.5
					c0,0.1,0.1,0.1,0.2,0.1c0.3,0,0.6,0.1,0.8-0.1c0.2-0.2,0.1-0.8,0.1-1.1c0-0.3-0.3-1.9,0.1-0.8c0,0.1,0.1,0.1,0.2,0
					c0.2-0.9,0.2-1.8,0.2-2.7c0-0.1,0-0.2,0-0.3c0-0.1,0-0.1-0.1-0.1c0-0.4-0.1-0.8-0.2-1.2c0.2,0.2,0.3,0.5,0.4,0.8
					c0,0.1,0.2,0.1,0.2,0c0.2-0.6,0.3-1.3,0.3-1.9c0,0.1,0.1,0.1,0.1,0.2c0.8,1.1,2.1,1.8,3.5,2c0.1,0,0.2-0.1,0.1-0.2
					c-0.2-0.2-0.3-0.4-0.4-0.6c0-0.1,0-0.2-0.1-0.4c2.4,2.2,6,3.3,9.2,2.7c0.1,0,0.1-0.2,0-0.2l-0.5-0.2c0.4,0.1,0.9,0.1,1.3,0.1
					c0,0.7,0,1.4-0.2,2.1c0,0.1,0.1,0.2,0.2,0.1c0.1-0.1,0.2-0.1,0.2-0.2c0,0.4-0.1,0.7-0.2,1.1c-0.1,0.3-0.3,0.6-0.2,0.9
					c0,0.1,0.1,0.3,0.2,0.3c0,0,0,0,0,0c0.2,0.1,0.6,0.2,0.8,0.2c0.1,0,0.1,0,0.1-0.1c0-0.7,0.1-1.4,0.2-2c0-0.2,0-0.5,0.1-0.7
					c0.5-0.7,0.7-0.3,1.1-0.1c0.1,0,0.1,0,0.1-0.1c0,0,0,0,0,0c0,0,0,0,0,0c0-0.6,0-1.4-0.2-2c1.7-0.6,3-2,3.2-3.9c0,0,0,0,0,0
					C43.4,19,43.2,18.8,43.1,18.9z"/>
				<path class="st5" d="M40.1,24.9C40.1,24.9,40.1,24.9,40.1,24.9"/>
			</g>
			<path class="st6" d="M47.3,58.1c0,0,0.1-0.1,0.1-0.2c-0.1-2.7-0.4-5.5-0.8-8.2c-0.3-2.5-0.7-5.2-1.5-7.6
				c-0.1-0.2-0.2-0.2-0.3-0.2c0,0,0,0-0.1,0c-2-0.6-4-1-6-1.6c-1.1-0.3-3.1-1.4-4.2-0.9c0,0-0.1,0.1-0.1,0.1
				c-2.3,1.9-5.9,2.3-8.2,0.2c0,0,0,0,0,0c-0.1-0.1-0.2-0.2-0.3-0.3c-0.1-0.1-0.2-0.1-0.3-0.1c-0.2,0-0.3,0-0.5,0
				c-0.1,0-0.2,0.1-0.4,0.1c-1.1,0.1-2.3,0.8-3.3,1.1c-1.7,0.6-3.5,1-5.3,1.5c-0.1,0-0.1,0.1-0.2,0.1c0,0-0.1,0-0.1,0.1
				c-0.1,0.1-0.1,0.2-0.2,0.3c-0.5,0.6-0.8,1.5-1.1,2.2c-0.4,1.3-0.8,2.6-1.2,3.9c-0.7,2.5-1.2,5-1.1,7.6c-0.4,1.4-0.1,3.3,0.6,4.5
				c0.8,1.4,2.3,2.2,3.7,2.7c3.9,1.3,8.5,1.1,12.6,1.2c4.4,0.1,8.9,0.4,13.1-0.8C44.7,63.2,49.4,61.3,47.3,58.1z"/>
		</g>
	</g>
</g>
</svg>
